{
  "test": {
    "ImagePath": "/Users/Home/Code/go/src/bitbucket.org/pixelsband/tilemill/data/map.jpg",
    "TileSize": 128,
    "TileCount": 36000,
    "StorageFolder": "/Users/Home/Code/go/src/bitbucket.org/pixelsband/tilemill",

    "FixturesPath": "/Users/Home/Code/go/src/bitbucket.org/pixelsband/tilemill/data/fixtures",
    "FixturesCount": 36000,
    "MinPerimeter": 6000
  }
}